Reproducible Research: Peer Assessment 1
…
preprocessing data

Adapt class of the variables

df$steps <- as.integer(df$steps)
df$date<-as.POSIXct(df$date)
df$interval <- as.factor(df$interval)
df <- as_tibble(df)

re-checking data structure

print(df)

## # A tibble: 17,568 x 3
##    steps date                interval
##    <int> <dttm>              <fct>   
##  1    NA 2012-10-01 00:00:00 0       
##  2    NA 2012-10-01 00:00:00 5       
##  3    NA 2012-10-01 00:00:00 10      
##  4    NA 2012-10-01 00:00:00 15      
##  5    NA 2012-10-01 00:00:00 20      
##  6    NA 2012-10-01 00:00:00 25      
##  7    NA 2012-10-01 00:00:00 30      
##  8    NA 2012-10-01 00:00:00 35      
##  9    NA 2012-10-01 00:00:00 40      
## 10    NA 2012-10-01 00:00:00 45      
## #  with 17,558 more rows
…
